…
    ## The following objects are masked from 'package:base':
    ## 
    ##     intersect, setdiff, setequal, union

    library(tidyr)


    df_1 <- gather(df, key = Key, value = Value, Measurement_1, Measurement_2, Measurement_3, -ID) #changing data from wide to long format
    df_2 <- group_by(df_1) #Group data according to means across the measurements made on each individual
    df_2

    ## # A tibble: 120 × 4
    ##       ID     Group           Key Value
    ##    <int>    <fctr>         <chr> <int>
    ## 1      1 Analgesic Measurement_1    26
    ## 2      2 Analgesic Measurement_1    29
    ## 3      3 Analgesic Measurement_1    24
    ## 4      4 Analgesic Measurement_1    25
    ## 5      5 Analgesic Measurement_1    24
    ## 6      6 Analgesic Measurement_1    22
    ## 7      7 Analgesic Measurement_1    25
    ## 8      8 Analgesic Measurement_1    28
    ## 9      9 Analgesic Measurement_1    22
    ## 10    10 Analgesic Measurement_1    18
    ## # ... with 110 more rows
…
